{
  "$schema": "http://json.schemastore.org/sarif-1.0.0",
  "version": "1.0.0",
  "runs": [
    {
      "tool": {
        "name": "Compilador de Microsoft (R) Visual C#",
        "version": "3.7.0.0",
        "fileVersion": "3.7.0-6.20371.12 (917b9dfa)",
        "semanticVersion": "3.7.0",
        "language": "es-MX"
      },
      "results": [
        {
          "ruleId": "CS1998",
          "level": "warning",
          "message": "El método asincrónico carece de operadores \"await\" y se ejecutará de forma sincrónica. Puede usar el operador 'await' para esperar llamadas API que no sean de bloqueo o 'await Task.Run(...)' para hacer tareas enlazadas a la CPU en un subproceso en segundo plano.",
          "locations": [
            {
              "resultFile": {
                "uri": "file:///C:/Users/ihpam/AppData/Local/Jenkins.jenkins/workspace/Practica7/practica5_sa/esbapi/esbAPI/Controllers/MidController.cs",
                "region": {
                  "startLine": 101,
                  "startColumn": 42,
                  "endLine": 101,
                  "endColumn": 48
                }
              }
            }
          ],
          "properties": {
            "warningLevel": 1
          }
        },
        {
          "ruleId": "S2933",
          "level": "warning",
          "message": "Make 'ruta' 'readonly'.",
          "locations": [
            {
              "resultFile": {
                "uri": "file:///C:/Users/ihpam/AppData/Local/Jenkins.jenkins/workspace/Practica7/practica5_sa/esbapi/esbAPI/Clases/Bitacora.cs",
                "region": {
                  "startLine": 13,
                  "startColumn": 24,
                  "endLine": 13,
                  "endColumn": 28
                }
              }
            }
          ],
          "properties": {
            "warningLevel": 1
          }
        },
        {
          "ruleId": "S1128",
          "level": "warning",
          "message": "Remove this unnecessary 'using'.",
          "locations": [
            {
              "resultFile": {
                "uri": "file:///C:/Users/ihpam/AppData/Local/Jenkins.jenkins/workspace/Practica7/practica5_sa/esbapi/esbAPI/BasicAuth.cs",
                "region": {
                  "startLine": 2,
                  "startColumn": 1,
                  "endLine": 2,
                  "endColumn": 42
                }
              }
            }
          ],
          "properties": {
            "warningLevel": 1
          }
        },
        {
          "ruleId": "S1128",
          "level": "warning",
          "message": "Remove this unnecessary 'using'.",
          "locations": [
            {
              "resultFile": {
                "uri": "file:///C:/Users/ihpam/AppData/Local/Jenkins.jenkins/workspace/Practica7/practica5_sa/esbapi/esbAPI/Clases/Bitacora.cs",
                "region": {
                  "startLine": 2,
                  "startColumn": 1,
                  "endLine": 2,
                  "endColumn": 34
                }
              }
            }
          ],
          "properties": {
            "warningLevel": 1
          }
        },
        {
          "ruleId": "S1128",
          "level": "warning",
          "message": "Remove this unnecessary 'using'.",
          "locations": [
            {
              "resultFile": {
                "uri": "file:///C:/Users/ihpam/AppData/Local/Jenkins.jenkins/workspace/Practica7/practica5_sa/esbapi/esbAPI/Clases/Bitacora.cs",
                "region": {
                  "startLine": 4,
                  "startColumn": 1,
                  "endLine": 4,
                  "endColumn": 19
                }
              }
            }
          ],
          "properties": {
            "warningLevel": 1
          }
        },
        {
          "ruleId": "S1128",
          "level": "warning",
          "message": "Remove this unnecessary 'using'.",
          "locations": [
            {
              "resultFile": {
                "uri": "file:///C:/Users/ihpam/AppData/Local/Jenkins.jenkins/workspace/Practica7/practica5_sa/esbapi/esbAPI/Clases/Bitacora.cs",
                "region": {
                  "startLine": 5,
                  "startColumn": 1,
                  "endLine": 5,
                  "endColumn": 19
                }
              }
            }
          ],
          "properties": {
            "warningLevel": 1
          }
        },
        {
          "ruleId": "S1128",
          "level": "warning",
          "message": "Remove this unnecessary 'using'.",
          "locations": [
            {
              "resultFile": {
                "uri": "file:///C:/Users/ihpam/AppData/Local/Jenkins.jenkins/workspace/Practica7/practica5_sa/esbapi/esbAPI/Clases/Resultado.cs",
                "region": {
                  "startLine": 2,
                  "startColumn": 1,
                  "endLine": 2,
                  "endColumn": 34
                }
              }
            }
          ],
          "properties": {
            "warningLevel": 1
          }
        },
        {
          "ruleId": "S1128",
          "level": "warning",
          "message": "Remove this unnecessary 'using'.",
          "locations": [
            {
              "resultFile": {
                "uri": "file:///C:/Users/ihpam/AppData/Local/Jenkins.jenkins/workspace/Practica7/practica5_sa/esbapi/esbAPI/Clases/Resultado.cs",
                "region": {
                  "startLine": 3,
                  "startColumn": 1,
                  "endLine": 3,
                  "endColumn": 19
                }
              }
            }
          ],
          "properties": {
            "warningLevel": 1
          }
        },
        {
          "ruleId": "S1128",
          "level": "warning",
          "message": "Remove this unnecessary 'using'.",
          "locations": [
            {
              "resultFile": {
                "uri": "file:///C:/Users/ihpam/AppData/Local/Jenkins.jenkins/workspace/Practica7/practica5_sa/esbapi/esbAPI/Clases/Resultado.cs",
                "region": {
                  "startLine": 4,
                  "startColumn": 1,
                  "endLine": 4,
                  "endColumn": 30
                }
              }
            }
          ],
          "properties": {
            "warningLevel": 1
          }
        },
        {
          "ruleId": "S1118",
          "level": "warning",
          "message": "Add a 'protected' constructor or the 'static' keyword to the class declaration.",
          "locations": [
            {
              "resultFile": {
                "uri": "file:///C:/Users/ihpam/AppData/Local/Jenkins.jenkins/workspace/Practica7/practica5_sa/esbapi/esbAPI/Program.cs",
                "region": {
                  "startLine": 13,
                  "startColumn": 18,
                  "endLine": 13,
                  "endColumn": 25
                }
              }
            }
          ],
          "properties": {
            "warningLevel": 1
          }
        },
        {
          "ruleId": "S3903",
          "level": "warning",
          "message": "Move 'Bitacora' into a named namespace.",
          "locations": [
            {
              "resultFile": {
                "uri": "file:///C:/Users/ihpam/AppData/Local/Jenkins.jenkins/workspace/Practica7/practica5_sa/esbapi/esbAPI/Clases/Bitacora.cs",
                "region": {
                  "startLine": 11,
                  "startColumn": 8,
                  "endLine": 11,
                  "endColumn": 16
                }
              }
            }
          ],
          "properties": {
            "warningLevel": 1
          }
        },
        {
          "ruleId": "S1128",
          "level": "warning",
          "message": "Remove this unnecessary 'using'.",
          "locations": [
            {
              "resultFile": {
                "uri": "file:///C:/Users/ihpam/AppData/Local/Jenkins.jenkins/workspace/Practica7/practica5_sa/esbapi/esbAPI/Program.cs",
                "region": {
                  "startLine": 1,
                  "startColumn": 1,
                  "endLine": 1,
                  "endColumn": 14
                }
              }
            }
          ],
          "properties": {
            "warningLevel": 1
          }
        },
        {
          "ruleId": "S1128",
          "level": "warning",
          "message": "Remove this unnecessary 'using'.",
          "locations": [
            {
              "resultFile": {
                "uri": "file:///C:/Users/ihpam/AppData/Local/Jenkins.jenkins/workspace/Practica7/practica5_sa/esbapi/esbAPI/Program.cs",
                "region": {
                  "startLine": 2,
                  "startColumn": 1,
                  "endLine": 2,
                  "endColumn": 34
                }
              }
            }
          ],
          "properties": {
            "warningLevel": 1
          }
        },
        {
          "ruleId": "S1128",
          "level": "warning",
          "message": "Remove this unnecessary 'using'.",
          "locations": [
            {
              "resultFile": {
                "uri": "file:///C:/Users/ihpam/AppData/Local/Jenkins.jenkins/workspace/Practica7/practica5_sa/esbapi/esbAPI/Program.cs",
                "region": {
                  "startLine": 3,
                  "startColumn": 1,
                  "endLine": 3,
                  "endColumn": 17
                }
              }
            }
          ],
          "properties": {
            "warningLevel": 1
          }
        },
        {
          "ruleId": "S1128",
          "level": "warning",
          "message": "Remove this unnecessary 'using'.",
          "locations": [
            {
              "resultFile": {
                "uri": "file:///C:/Users/ihpam/AppData/Local/Jenkins.jenkins/workspace/Practica7/practica5_sa/esbapi/esbAPI/Program.cs",
                "region": {
                  "startLine": 4,
                  "startColumn": 1,
                  "endLine": 4,
                  "endColumn": 19
                }
              }
            }
          ],
          "properties": {
            "warningLevel": 1
          }
        },
        {
          "ruleId": "S1128",
          "level": "warning",
          "message": "Remove this unnecessary 'using'.",
          "locations": [
            {
              "resultFile": {
                "uri": "file:///C:/Users/ihpam/AppData/Local/Jenkins.jenkins/workspace/Practica7/practica5_sa/esbapi/esbAPI/Program.cs",
                "region": {
                  "startLine": 5,
                  "startColumn": 1,
                  "endLine": 5,
                  "endColumn": 30
                }
              }
            }
          ],
          "properties": {
            "warningLevel": 1
          }
        },
        {
          "ruleId": "S1128",
          "level": "warning",
          "message": "Remove this unnecessary 'using'.",
          "locations": [
            {
              "resultFile": {
                "uri": "file:///C:/Users/ihpam/AppData/Local/Jenkins.jenkins/workspace/Practica7/practica5_sa/esbapi/esbAPI/Program.cs",
                "region": {
                  "startLine": 8,
                  "startColumn": 1,
                  "endLine": 8,
                  "endColumn": 42
                }
              }
            }
          ],
          "properties": {
            "warningLevel": 1
          }
        },
        {
          "ruleId": "S1128",
          "level": "warning",
          "message": "Remove this unnecessary 'using'.",
          "locations": [
            {
              "resultFile": {
                "uri": "file:///C:/Users/ihpam/AppData/Local/Jenkins.jenkins/workspace/Practica7/practica5_sa/esbapi/esbAPI/Program.cs",
                "region": {
                  "startLine": 9,
                  "startColumn": 1,
                  "endLine": 9,
                  "endColumn": 36
                }
              }
            }
          ],
          "properties": {
            "warningLevel": 1
          }
        },
        {
          "ruleId": "S1128",
          "level": "warning",
          "message": "Remove this unnecessary 'using'.",
          "locations": [
            {
              "resultFile": {
                "uri": "file:///C:/Users/ihpam/AppData/Local/Jenkins.jenkins/workspace/Practica7/practica5_sa/esbapi/esbAPI/Startup.cs",
                "region": {
                  "startLine": 1,
                  "startColumn": 1,
                  "endLine": 1,
                  "endColumn": 14
                }
              }
            }
          ],
          "properties": {
            "warningLevel": 1
          }
        },
        {
          "ruleId": "S1128",
          "level": "warning",
          "message": "Remove this unnecessary 'using'.",
          "locations": [
            {
              "resultFile": {
                "uri": "file:///C:/Users/ihpam/AppData/Local/Jenkins.jenkins/workspace/Practica7/practica5_sa/esbapi/esbAPI/Startup.cs",
                "region": {
                  "startLine": 2,
                  "startColumn": 1,
                  "endLine": 2,
                  "endColumn": 34
                }
              }
            }
          ],
          "properties": {
            "warningLevel": 1
          }
        },
        {
          "ruleId": "S1128",
          "level": "warning",
          "message": "Remove this unnecessary 'using'.",
          "locations": [
            {
              "resultFile": {
                "uri": "file:///C:/Users/ihpam/AppData/Local/Jenkins.jenkins/workspace/Practica7/practica5_sa/esbapi/esbAPI/Startup.cs",
                "region": {
                  "startLine": 3,
                  "startColumn": 1,
                  "endLine": 3,
                  "endColumn": 19
                }
              }
            }
          ],
          "properties": {
            "warningLevel": 1
          }
        },
        {
          "ruleId": "S1128",
          "level": "warning",
          "message": "Remove this unnecessary 'using'.",
          "locations": [
            {
              "resultFile": {
                "uri": "file:///C:/Users/ihpam/AppData/Local/Jenkins.jenkins/workspace/Practica7/practica5_sa/esbapi/esbAPI/Startup.cs",
                "region": {
                  "startLine": 4,
                  "startColumn": 1,
                  "endLine": 4,
                  "endColumn": 30
                }
              }
            }
          ],
          "properties": {
            "warningLevel": 1
          }
        },
        {
          "ruleId": "S1128",
          "level": "warning",
          "message": "Remove this unnecessary 'using'.",
          "locations": [
            {
              "resultFile": {
                "uri": "file:///C:/Users/ihpam/AppData/Local/Jenkins.jenkins/workspace/Practica7/practica5_sa/esbapi/esbAPI/Startup.cs",
                "region": {
                  "startLine": 9,
                  "startColumn": 1,
                  "endLine": 9,
                  "endColumn": 36
                }
              }
            }
          ],
          "properties": {
            "warningLevel": 1
          }
        },
        {
          "ruleId": "S1128",
          "level": "warning",
          "message": "Remove this unnecessary 'using'.",
          "locations": [
            {
              "resultFile": {
                "uri": "file:///C:/Users/ihpam/AppData/Local/Jenkins.jenkins/workspace/Practica7/practica5_sa/esbapi/esbAPI/Startup.cs",
                "region": {
                  "startLine": 10,
                  "startColumn": 1,
                  "endLine": 10,
                  "endColumn": 36
                }
              }
            }
          ],
          "properties": {
            "warningLevel": 1
          }
        },
        {
          "ruleId": "S2223",
          "level": "warning",
          "message": "Change the visibility of 'connexion' or make it 'const' or 'readonly'.",
          "locations": [
            {
              "resultFile": {
                "uri": "file:///C:/Users/ihpam/AppData/Local/Jenkins.jenkins/workspace/Practica7/practica5_sa/esbapi/esbAPI/BasicAuth.cs",
                "region": {
                  "startLine": 16,
                  "startColumn": 48,
                  "endLine": 16,
                  "endColumn": 57
                }
              }
            }
          ],
          "properties": {
            "warningLevel": 1
          }
        },
        {
          "ruleId": "S1104",
          "level": "warning",
          "message": "Make this field 'private' and encapsulate it in a 'public' property.",
          "locations": [
            {
              "resultFile": {
                "uri": "file:///C:/Users/ihpam/AppData/Local/Jenkins.jenkins/workspace/Practica7/practica5_sa/esbapi/esbAPI/BasicAuth.cs",
                "region": {
                  "startLine": 16,
                  "startColumn": 48,
                  "endLine": 16,
                  "endColumn": 57
                }
              }
            }
          ],
          "properties": {
            "warningLevel": 1
          }
        },
        {
          "ruleId": "S2292",
          "level": "warning",
          "message": "Make this an auto-implemented property and remove its backing field.",
          "locations": [
            {
              "resultFile": {
                "uri": "file:///C:/Users/ihpam/AppData/Local/Jenkins.jenkins/workspace/Practica7/practica5_sa/esbapi/esbAPI/Clases/Resultado.cs",
                "region": {
                  "startLine": 17,
                  "startColumn": 20,
                  "endLine": 17,
                  "endColumn": 35
                }
              }
            }
          ],
          "properties": {
            "warningLevel": 1
          }
        },
        {
          "ruleId": "S2292",
          "level": "warning",
          "message": "Make this an auto-implemented property and remove its backing field.",
          "locations": [
            {
              "resultFile": {
                "uri": "file:///C:/Users/ihpam/AppData/Local/Jenkins.jenkins/workspace/Practica7/practica5_sa/esbapi/esbAPI/Clases/Resultado.cs",
                "region": {
                  "startLine": 30,
                  "startColumn": 23,
                  "endLine": 30,
                  "endColumn": 39
                }
              }
            }
          ],
          "properties": {
            "warningLevel": 1
          }
        },
        {
          "ruleId": "S3010",
          "level": "warning",
          "message": "Remove this assignment of 'connexion' or initialize it statically.",
          "locations": [
            {
              "resultFile": {
                "uri": "file:///C:/Users/ihpam/AppData/Local/Jenkins.jenkins/workspace/Practica7/practica5_sa/esbapi/esbAPI/BasicAuth.cs",
                "region": {
                  "startLine": 22,
                  "startColumn": 13,
                  "endLine": 22,
                  "endColumn": 24
                }
              }
            }
          ],
          "relatedLocations": [
            {
              "physicalLocation": {
                "uri": "file:///C:/Users/ihpam/AppData/Local/Jenkins.jenkins/workspace/Practica7/practica5_sa/esbapi/esbAPI/BasicAuth.cs",
                "region": {
                  "startLine": 16,
                  "startColumn": 48,
                  "endLine": 16,
                  "endColumn": 57
                }
              }
            }
          ],
          "properties": {
            "warningLevel": 1
          }
        },
        {
          "ruleId": "S2486",
          "level": "warning",
          "message": "Handle the exception or explain in a comment why it can be ignored.",
          "locations": [
            {
              "resultFile": {
                "uri": "file:///C:/Users/ihpam/AppData/Local/Jenkins.jenkins/workspace/Practica7/practica5_sa/esbapi/esbAPI/Clases/Bitacora.cs",
                "region": {
                  "startLine": 38,
                  "startColumn": 13,
                  "endLine": 38,
                  "endColumn": 21
                }
              }
            }
          ],
          "properties": {
            "warningLevel": 1
          }
        },
        {
          "ruleId": "S108",
          "level": "warning",
          "message": "Either remove or fill this block of code.",
          "locations": [
            {
              "resultFile": {
                "uri": "file:///C:/Users/ihpam/AppData/Local/Jenkins.jenkins/workspace/Practica7/practica5_sa/esbapi/esbAPI/Clases/Bitacora.cs",
                "region": {
                  "startLine": 38,
                  "startColumn": 18,
                  "endLine": 38,
                  "endColumn": 21
                }
              }
            }
          ],
          "properties": {
            "warningLevel": 1
          }
        },
        {
          "ruleId": "S1075",
          "level": "warning",
          "message": "Refactor your code not to use hardcoded absolute paths or URIs.",
          "locations": [
            {
              "resultFile": {
                "uri": "file:///C:/Users/ihpam/AppData/Local/Jenkins.jenkins/workspace/Practica7/practica5_sa/esbapi/esbAPI/Controllers/MidController.cs",
                "region": {
                  "startLine": 45,
                  "startColumn": 35,
                  "endLine": 45,
                  "endColumn": 58
                }
              }
            }
          ],
          "properties": {
            "warningLevel": 1
          }
        },
        {
          "ruleId": "S1075",
          "level": "warning",
          "message": "Refactor your code not to use hardcoded absolute paths or URIs.",
          "locations": [
            {
              "resultFile": {
                "uri": "file:///C:/Users/ihpam/AppData/Local/Jenkins.jenkins/workspace/Practica7/practica5_sa/esbapi/esbAPI/Controllers/MidController.cs",
                "region": {
                  "startLine": 46,
                  "startColumn": 39,
                  "endLine": 46,
                  "endColumn": 62
                }
              }
            }
          ],
          "properties": {
            "warningLevel": 1
          }
        },
        {
          "ruleId": "S1075",
          "level": "warning",
          "message": "Refactor your code not to use hardcoded absolute paths or URIs.",
          "locations": [
            {
              "resultFile": {
                "uri": "file:///C:/Users/ihpam/AppData/Local/Jenkins.jenkins/workspace/Practica7/practica5_sa/esbapi/esbAPI/Controllers/MidController.cs",
                "region": {
                  "startLine": 47,
                  "startColumn": 39,
                  "endLine": 47,
                  "endColumn": 62
                }
              }
            }
          ],
          "properties": {
            "warningLevel": 1
          }
        },
        {
          "ruleId": "S2486",
          "level": "warning",
          "message": "Handle the exception or explain in a comment why it can be ignored.",
          "locations": [
            {
              "resultFile": {
                "uri": "file:///C:/Users/ihpam/AppData/Local/Jenkins.jenkins/workspace/Practica7/practica5_sa/esbapi/esbAPI/Clases/Bitacora.cs",
                "region": {
                  "startLine": 88,
                  "startColumn": 13,
                  "endLine": 91,
                  "endColumn": 14
                }
              }
            }
          ],
          "properties": {
            "warningLevel": 1
          }
        },
        {
          "ruleId": "S108",
          "level": "warning",
          "message": "Either remove or fill this block of code.",
          "locations": [
            {
              "resultFile": {
                "uri": "file:///C:/Users/ihpam/AppData/Local/Jenkins.jenkins/workspace/Practica7/practica5_sa/esbapi/esbAPI/Clases/Bitacora.cs",
                "region": {
                  "startLine": 89,
                  "startColumn": 13,
                  "endLine": 91,
                  "endColumn": 14
                }
              }
            }
          ],
          "properties": {
            "warningLevel": 1
          }
        },
        {
          "ruleId": "S1481",
          "level": "warning",
          "message": "Remove the unused local variable 'di'.",
          "locations": [
            {
              "resultFile": {
                "uri": "file:///C:/Users/ihpam/AppData/Local/Jenkins.jenkins/workspace/Practica7/practica5_sa/esbapi/esbAPI/Clases/Bitacora.cs",
                "region": {
                  "startLine": 26,
                  "startColumn": 35,
                  "endLine": 26,
                  "endColumn": 37
                }
              }
            }
          ],
          "properties": {
            "warningLevel": 1
          }
        },
        {
          "ruleId": "S1116",
          "level": "warning",
          "message": "Remove this empty statement.",
          "locations": [
            {
              "resultFile": {
                "uri": "file:///C:/Users/ihpam/AppData/Local/Jenkins.jenkins/workspace/Practica7/practica5_sa/esbapi/esbAPI/Startup.cs",
                "region": {
                  "startLine": 33,
                  "startColumn": 52,
                  "endLine": 33,
                  "endColumn": 53
                }
              }
            }
          ],
          "properties": {
            "warningLevel": 1
          }
        },
        {
          "ruleId": "S1075",
          "level": "warning",
          "message": "Refactor your code not to use hardcoded absolute paths or URIs.",
          "locations": [
            {
              "resultFile": {
                "uri": "file:///C:/Users/ihpam/AppData/Local/Jenkins.jenkins/workspace/Practica7/practica5_sa/esbapi/esbAPI/Controllers/MidController.cs",
                "region": {
                  "startLine": 105,
                  "startColumn": 35,
                  "endLine": 105,
                  "endColumn": 58
                }
              }
            }
          ],
          "properties": {
            "warningLevel": 1
          }
        },
        {
          "ruleId": "S1075",
          "level": "warning",
          "message": "Refactor your code not to use hardcoded absolute paths or URIs.",
          "locations": [
            {
              "resultFile": {
                "uri": "file:///C:/Users/ihpam/AppData/Local/Jenkins.jenkins/workspace/Practica7/practica5_sa/esbapi/esbAPI/Controllers/MidController.cs",
                "region": {
                  "startLine": 106,
                  "startColumn": 39,
                  "endLine": 106,
                  "endColumn": 62
                }
              }
            }
          ],
          "properties": {
            "warningLevel": 1
          }
        },
        {
          "ruleId": "S1075",
          "level": "warning",
          "message": "Refactor your code not to use hardcoded absolute paths or URIs.",
          "locations": [
            {
              "resultFile": {
                "uri": "file:///C:/Users/ihpam/AppData/Local/Jenkins.jenkins/workspace/Practica7/practica5_sa/esbapi/esbAPI/Controllers/MidController.cs",
                "region": {
                  "startLine": 107,
                  "startColumn": 39,
                  "endLine": 107,
                  "endColumn": 62
                }
              }
            }
          ],
          "properties": {
            "warningLevel": 1
          }
        },
        {
          "ruleId": "S1481",
          "level": "warning",
          "message": "Remove the unused local variable 'di'.",
          "locations": [
            {
              "resultFile": {
                "uri": "file:///C:/Users/ihpam/AppData/Local/Jenkins.jenkins/workspace/Practica7/practica5_sa/esbapi/esbAPI/Clases/Bitacora.cs",
                "region": {
                  "startLine": 55,
                  "startColumn": 35,
                  "endLine": 55,
                  "endColumn": 37
                }
              }
            }
          ],
          "properties": {
            "warningLevel": 1
          }
        }
      ],
      "rules": {
        "CS1998": {
          "id": "CS1998",
          "shortDescription": "El método asincrónico carece de operadores \"await\" y se ejecutará de forma sincrónica",
          "defaultLevel": "warning",
          "properties": {
            "category": "Compiler",
            "isEnabledByDefault": true,
            "tags": [
              "Compiler",
              "Telemetry"
            ]
          }
        },
        "S1075": {
          "id": "S1075",
          "shortDescription": "URIs should not be hardcoded",
          "fullDescription": "Hardcoding a URI makes it difficult to test a program: path literals are not always portable across operating systems, a given absolute path may not exist on a specific test environment, a specified Internet URL may not be available when executing the tests, production environment filesystems usually differ from the development environment, ...etc. For all those reasons, a URI should never be hardcoded. Instead, it should be replaced by customizable parameter.",
          "defaultLevel": "warning",
          "helpUri": "https://rules.sonarsource.com/csharp/RSPEC-1075",
          "properties": {
            "category": "Minor Code Smell",
            "isEnabledByDefault": true,
            "tags": [
              "C#",
              "SonarWay",
              "MainSourceScope"
            ]
          }
        },
        "S108": {
          "id": "S108",
          "shortDescription": "Nested blocks of code should not be left empty",
          "fullDescription": "Most of the time a block of code is empty when a piece of code is really missing. So such empty block must be either filled or removed.",
          "defaultLevel": "warning",
          "helpUri": "https://rules.sonarsource.com/csharp/RSPEC-108",
          "properties": {
            "category": "Major Code Smell",
            "isEnabledByDefault": true,
            "tags": [
              "C#",
              "SonarWay",
              "MainSourceScope",
              "TestSourceScope"
            ]
          }
        },
        "S1104": {
          "id": "S1104",
          "shortDescription": "Fields should not have public accessibility",
          "fullDescription": "Public fields in public classes do not respect the encapsulation principle and has three main disadvantages:",
          "defaultLevel": "warning",
          "helpUri": "https://rules.sonarsource.com/csharp/RSPEC-1104",
          "properties": {
            "category": "Minor Code Smell",
            "isEnabledByDefault": true,
            "tags": [
              "C#",
              "SonarWay",
              "MainSourceScope"
            ]
          }
        },
        "S1116": {
          "id": "S1116",
          "shortDescription": "Empty statements should be removed",
          "fullDescription": "Empty statements, i.e. ;, are usually introduced by mistake, for example because:",
          "defaultLevel": "warning",
          "helpUri": "https://rules.sonarsource.com/csharp/RSPEC-1116",
          "properties": {
            "category": "Minor Code Smell",
            "isEnabledByDefault": true,
            "tags": [
              "C#",
              "SonarWay",
              "MainSourceScope",
              "TestSourceScope"
            ]
          }
        },
        "S1118": {
          "id": "S1118",
          "shortDescription": "Utility classes should not have public constructors",
          "fullDescription": "Utility classes, which are collections of static members, are not meant to be instantiated.",
          "defaultLevel": "warning",
          "helpUri": "https://rules.sonarsource.com/csharp/RSPEC-1118",
          "properties": {
            "category": "Major Code Smell",
            "isEnabledByDefault": true,
            "tags": [
              "C#",
              "SonarWay",
              "MainSourceScope",
              "TestSourceScope"
            ]
          }
        },
        "S1128": {
          "id": "S1128",
          "shortDescription": "Unused \"using\" should be removed",
          "fullDescription": "Although unnecessary using won't change anything to the produced application, removing them:",
          "defaultLevel": "warning",
          "helpUri": "https://rules.sonarsource.com/csharp/RSPEC-1128",
          "properties": {
            "category": "Minor Code Smell",
            "isEnabledByDefault": true,
            "tags": [
              "C#",
              "SonarWay",
              "MainSourceScope",
              "TestSourceScope"
            ]
          }
        },
        "S1481": {
          "id": "S1481",
          "shortDescription": "Unused local variables should be removed",
          "fullDescription": "If a local variable is declared but not used, it is dead code and should be removed. Doing so will improve maintainability because developers will not wonder what the variable is used for.",
          "defaultLevel": "warning",
          "helpUri": "https://rules.sonarsource.com/csharp/RSPEC-1481",
          "properties": {
            "category": "Minor Code Smell",
            "isEnabledByDefault": true,
            "tags": [
              "C#",
              "SonarWay",
              "MainSourceScope",
              "TestSourceScope"
            ]
          }
        },
        "S2223": {
          "id": "S2223",
          "shortDescription": "Non-constant static fields should not be visible",
          "fullDescription": "A static field that is neither constant nor read-only is not thread-safe. Correctly accessing these fields from different threads needs synchronization with locks. Improper synchronization may lead to unexpected results, thus publicly visible static fields are best suited for storing non-changing data shared by many consumers. To enforce this intent, these fields should be marked readonly or converted to constants.",
          "defaultLevel": "warning",
          "helpUri": "https://rules.sonarsource.com/csharp/RSPEC-2223",
          "properties": {
            "category": "Critical Code Smell",
            "isEnabledByDefault": true,
            "tags": [
              "C#",
              "SonarWay",
              "MainSourceScope"
            ]
          }
        },
        "S2292": {
          "id": "S2292",
          "shortDescription": "Trivial properties should be auto-implemented",
          "fullDescription": "Trivial properties, which include no logic but setting and getting a backing field should be converted to auto-implemented properties, yielding cleaner and more readable code.",
          "defaultLevel": "warning",
          "helpUri": "https://rules.sonarsource.com/csharp/RSPEC-2292",
          "properties": {
            "category": "Minor Code Smell",
            "isEnabledByDefault": true,
            "tags": [
              "C#",
              "SonarWay",
              "MainSourceScope",
              "TestSourceScope"
            ]
          }
        },
        "S2486": {
          "id": "S2486",
          "shortDescription": "Generic exceptions should not be ignored",
          "fullDescription": "When exceptions occur, it is usually a bad idea to simply ignore them. Instead, it is better to handle them properly, or at least to log them.",
          "defaultLevel": "warning",
          "helpUri": "https://rules.sonarsource.com/csharp/RSPEC-2486",
          "properties": {
            "category": "Minor Vulnerability",
            "isEnabledByDefault": true,
            "tags": [
              "C#",
              "SonarWay",
              "MainSourceScope"
            ]
          }
        },
        "S2933": {
          "id": "S2933",
          "shortDescription": "Fields that are only assigned in the constructor should be \"readonly\"",
          "fullDescription": "readonly fields can only be assigned in a class constructor. If a class has a field that's not marked readonly but is only set in the constructor, it could cause confusion about the field's intended use. To avoid confusion, such fields should be marked readonly to make their intended use explicit, and to prevent future maintainers from inadvertently changing their use.",
          "defaultLevel": "warning",
          "helpUri": "https://rules.sonarsource.com/csharp/RSPEC-2933",
          "properties": {
            "category": "Major Code Smell",
            "isEnabledByDefault": true,
            "tags": [
              "C#",
              "SonarWay",
              "MainSourceScope",
              "TestSourceScope"
            ]
          }
        },
        "S3010": {
          "id": "S3010",
          "shortDescription": "Static fields should not be updated in constructors",
          "fullDescription": "Assigning a value to a static field in a constructor could cause unreliable behavior at runtime since it will change the value for all instances of the class.",
          "defaultLevel": "warning",
          "helpUri": "https://rules.sonarsource.com/csharp/RSPEC-3010",
          "properties": {
            "category": "Major Code Smell",
            "isEnabledByDefault": true,
            "tags": [
              "C#",
              "SonarWay",
              "MainSourceScope"
            ]
          }
        },
        "S3903": {
          "id": "S3903",
          "shortDescription": "Types should be defined in named namespaces",
          "fullDescription": "Types are declared in namespaces in order to prevent name collisions and as a way to organize them into the object hierarchy. Types that are defined outside any named namespace are in a global namespace that cannot be referenced in code.",
          "defaultLevel": "warning",
          "helpUri": "https://rules.sonarsource.com/csharp/RSPEC-3903",
          "properties": {
            "category": "Major Bug",
            "isEnabledByDefault": true,
            "tags": [
              "C#",
              "SonarWay",
              "MainSourceScope",
              "TestSourceScope"
            ]
          }
        }
      }
    }
  ]
}